[
	{
	"code": "fruit-vinegar",
	"sealHours": 216,
	"ingredients": [
		{ "type": "item", "code": "game:waterportion", "litres": 0.5 },
		{ "type": "item", "code": "wildcraftfruit:pressedmash-*", "quantity": 1, "name": "mash" }
	],
	"output": { "type": "item", "code": "game:vinegarportion", "litres": 0.5 }
	}
]
