[
  {
    "op": "add",
    "path": "/combustiblePropsByType/workitem-electrum",
    "value": {
        "meltingPoint": 1010,
        "meltingDuration": 30,
        "smeltedRatio": 1,
        "smeltedStack": { "type": "item", "code": "ingot-electrum" }
    },
    "file": "game:itemtypes/resource/workitem.json",
    "side": "Server"
  }
]
