[
  {
    "op": "addmerge",
    "path": "/transitionablePropsByType",
    "value": {
	"powder-iron-raw": [{
		"type": "Perish",
		"freshHours": { "avg": 48 },
		"transitionHours": { "avg": 672, "var": 72 },
		"transitionedStack": { "type": "item", "code": "game:powder-iron-oxide" },
		"transitionRatio": 1
                }]
    },
    "file": "game:itemtypes/resource/crushed/powder-graded.json",
    "side": "Server"
  },

  {
    "op": "addmerge",
    "path": "/maxstacksize",
    "value": 128,
    "file": "game:itemtypes/resource/crushed/powder-graded.json",
    "side": "Server"
  }
]
