[
  {
    "op": "remove",
    "path": "/attributes/handbook/excludeByType/*-uranium",
    "file": "game:itemtypes/resource/metalplate.json",
    "side": "Server"
  },
  {
    "op": "remove",
    "path": "/attributes/handbook/excludeByType/*-chromium",
    "file": "game:itemtypes/resource/metalplate.json",
    "side": "Server"
  }
]
