[
	{
	"ingredientPattern": "_P_,CBF",
	"ingredients": {
		"P": { "type": "item", "code": "em:powdered-ore-hematite", "quantity": 8 },
		"B": { "type": "item", "code": "game:blastingpowder", "quantity": 4 },
		"C": { "type": "item", "code": "game:flaxtwine" },
		"F": { "type": "block", "code": "game:linen-*" }
	},
	"name": "bomb-stone",
	"width": 3,
	"height": 2,
	"shapeless": true,
	"output": { "type": "block", "code": "game:bomb-stone", "quantity": 8 }
	},

	{
	"ingredientPattern": "SPS,CBF",
	"ingredients": {
		"S": { "type": "block", "code": "game:metal-scraps", "quantity": 2 },
		"P": { "type": "item", "code": "em:powdered-ore-hematite", "quantity": 8 },
		"B": { "type": "item", "code": "game:blastingpowder", "quantity": 4 },
		"C": { "type": "item", "code": "game:flaxtwine" },
		"F": { "type": "block", "code": "game:linen-*" }
	},
	"name": "bomb-scrap",
	"width": 3,
	"height": 2,
	"shapeless": true,
	"output": { "type": "block", "code": "game:bomb-scrap", "quantity": 8 }
	},

	{
	"ingredientPattern": "SPS,CBF",
	"ingredients": {
		"S": { "type": "item", "code": "game:metalnailsandstrips-*", "quantity": 4 },
		"P": { "type": "item", "code": "em:powdered-ore-hematite", "quantity": 8 },
		"B": { "type": "item", "code": "game:blastingpowder", "quantity": 4 },
		"C": { "type": "item", "code": "game:flaxtwine" },
		"F": { "type": "block", "code": "game:linen-*" }
	},
	"recipeGroup": 1,
	"name": "bomb-scrap",
	"width": 3,
	"height": 2,
	"shapeless": true,
	"output": { "type": "block", "code": "game:bomb-scrap", "quantity": 8 }
	},

	{
	"ingredientPattern": "SPT,CBF",
	"ingredients": {
		"S": { "type": "item", "code": "game:metalnailsandstrips-*", "quantity": 4 },
		"T": { "type": "block", "code": "game:metal-scraps", "quantity": 2 },
		"P": { "type": "item", "code": "em:powdered-ore-hematite", "quantity": 8 },
		"B": { "type": "item", "code": "game:blastingpowder", "quantity": 4 },
		"C": { "type": "item", "code": "game:flaxtwine" },
		"F": { "type": "block", "code": "game:linen-*" }
	},
	"recipeGroup": 2,
	"name": "bomb-scrap",
	"width": 3,
	"height": 2,
	"shapeless": true,
	"output": { "type": "block", "code": "game:bomb-scrap", "quantity": 8 }
	},

	{
	"ingredientPattern": "_P_,CBF",
	"ingredients": {
		"P": { "type": "item", "code": "em:powdered-metal-rusty", "quantity": 8 },
		"B": { "type": "item", "code": "game:blastingpowder", "quantity": 4 },
		"C": { "type": "item", "code": "game:flaxtwine" },
		"F": { "type": "block", "code": "game:linen-*" }
	},
	"name": "bomb-stone",
	"width": 3,
	"height": 2,
	"shapeless": true,
	"output": { "type": "block", "code": "game:bomb-stone", "quantity": 8 }
	},

	{
	"ingredientPattern": "SPS,CBF",
	"ingredients": {
		"S": { "type": "block", "code": "game:metal-scraps", "quantity": 2 },
		"P": { "type": "item", "code": "em:powdered-metal-rusty", "quantity": 8 },
		"B": { "type": "item", "code": "game:blastingpowder", "quantity": 4 },
		"C": { "type": "item", "code": "game:flaxtwine" },
		"F": { "type": "block", "code": "game:linen-*" }
	},
	"name": "bomb-scrap",
	"width": 3,
	"height": 2,
	"shapeless": true,
	"output": { "type": "block", "code": "game:bomb-scrap", "quantity": 8 }
	},

	{
	"ingredientPattern": "SPS,CBF",
	"ingredients": {
		"S": { "type": "item", "code": "game:metalnailsandstrips-*", "quantity": 4 },
		"P": { "type": "item", "code": "em:powdered-metal-rusty", "quantity": 8 },
		"B": { "type": "item", "code": "game:blastingpowder", "quantity": 4 },
		"C": { "type": "item", "code": "game:flaxtwine" },
		"F": { "type": "block", "code": "game:linen-*" }
	},
	"recipeGroup": 1,
	"name": "bomb-scrap",
	"width": 3,
	"height": 2,
	"shapeless": true,
	"output": { "type": "block", "code": "game:bomb-scrap", "quantity": 8 }
	},

	{
	"ingredientPattern": "SPT,CBF",
	"ingredients": {
		"S": { "type": "item", "code": "game:metalnailsandstrips-*", "quantity": 4 },
		"T": { "type": "block", "code": "game:metal-scraps", "quantity": 2 },
		"P": { "type": "item", "code": "em:powdered-metal-rusty", "quantity": 8 },
		"B": { "type": "item", "code": "game:blastingpowder", "quantity": 4 },
		"C": { "type": "item", "code": "game:flaxtwine" },
		"F": { "type": "block", "code": "game:linen-*" }
	},
	"recipeGroup": 2,
	"name": "bomb-scrap",
	"width": 3,
	"height": 2,
	"shapeless": true,
	"output": { "type": "block", "code": "game:bomb-scrap", "quantity": 8 }
	}
]
