[
	{
		"code": "dye-purple-red",
		"ingredients": [
			{ "type": "item", "code": "game:dye-red", "litres": 2 },
			{ "type": "item", "code": "em:powdered-metal-nickel", "quantity": 1 }
		],
		"output": { "type": "item", "code": "game:dye-purple", "litres": 2 }
	},
	{
		"code": "dye-purple-red",
		"name": "dye-purple-red-lapis",
		"ingredients": [
			{ "type": "item", "code": "game:dye-red", "litres": 2 },
			{ "type": "item", "code": "game:powder-lapislazuli", "quantity": 1 }
		],
		"output": { "type": "item", "code": "game:dye-purple", "litres": 2 }
	},
	{
		"code": "dye-purple-blue",
		"name": "dye-purple-blue-litharge",
		"ingredients": [
			{ "type": "item", "code": "game:dye-blue", "litres": 2 },
			{ "type": "item", "code": "em:powdered-ore-litharge", "quantity": 1 }
		],
		"output": { "type": "item", "code": "game:dye-purple", "litres": 2 }
	},
	{
		"code": "dye-purple-blue",
		"name": "dye-purple-blue-hematite",
		"ingredients": [
			{ "type": "item", "code": "game:dye-blue", "litres": 2 },
			{ "type": "item", "code": "em:powdered-ore-hematite", "quantity": 1 }
		],
		"output": { "type": "item", "code": "game:dye-purple", "litres": 2 }
	},
	{
		"code": "dye-purple-blue",
		"name": "dye-purple-blue-cinnabar",
		"ingredients": [
			{ "type": "item", "code": "game:dye-blue", "litres": 2 },
			{ "type": "item", "code": "game:powder-cinnabar", "quantity": 1 }
		],
		"output": { "type": "item", "code": "game:dye-purple", "litres": 2 }
	},
	{
		"code": "dye-purple-woad-blue",
		"name": "dye-purple-woad-blue-litharge",
		"ingredients": [
			{ "type": "item", "code": "game:dye-woad", "litres": 2 },
			{ "type": "item", "code": "em:powdered-ore-litharge", "quantity": 1 }
		],
		"output": { "type": "item", "code": "game:dye-purple", "litres": 2 }
	},
	{
		"code": "dye-purple-woad-blue",
		"name": "dye-purple-woad-blue-hematite",
		"ingredients": [
			{ "type": "item", "code": "game:dye-woad", "litres": 2 },
			{ "type": "item", "code": "em:powdered-ore-hematite", "quantity": 1 }
		],
		"output": { "type": "item", "code": "game:dye-purple", "litres": 2 }
	},
	{
		"code": "dye-purple-woad-blue",
		"name": "dye-purple-woad-blue-cinnabar",
		"ingredients": [
			{ "type": "item", "code": "game:dye-woad", "litres": 2 },
			{ "type": "item", "code": "game:powder-cinnabar", "quantity": 1 }
		],
		"output": { "type": "item", "code": "game:dye-purple", "litres": 2 }
	}
]
