[
	{
	"comment": "Compatibility with Ancient Tools",
	"ingredientPattern": "C,P",
	"ingredients": {
		"C": { "type": "item", "code": "em:powdered-ore-coal" },
		"P": { "type": "block", "code": "game:claypot-burned" }
	},
	"width": 1,
	"height": 2,
	"shapeless": true,
	"output": { "type": "block", "code": "ancienttools:pitchpot-empty", "quantity": 1 }
	}
]
