[
	{
	"code": "causticpotash",
	"ingredients": [
		{ "type": "item", "code": "game:slakedlimeportion", "litres": 3 },
		{ "type": "item", "code": "game:potash", "quantity": 1 }
	],
	"output": { "type": "item", "code": "em:causticpotashportion", "litres": 3 }
	}
]
