[
	{
	"code": "dilutedalum_powdered",
	"ingredients": [
		{ "type": "item", "code": "game:waterportion",  "litres": 5 },
		{ "type": "item", "code": "game:powder-alum", "quantity": 2 }
	],
	"output": { "type": "item", "code": "game:dilutedalumportion", "litres": 5 }
	}
]
